{
  "parent": "block/cube_all",
  "textures": {
    "up": "factoriocraft:block/passive_provider_chest_top",
    "north": "factoriocraft:block/passive_provider_chest_side",
    "south": "factoriocraft:block/passive_provider_chest_side",
    "east": "factoriocraft:block/passive_provider_chest_side",
    "west": "factoriocraft:block/passive_provider_chest_side",
    "down": "factoriocraft:block/passive_provider_chest_bottom",
    "particle": "factoriocraft:block/passive_provider_chest_side"
  }
}