{
	"format_version": "1.8.0",
	"animations": {
		"animation.logistic_robot_model.idle": {
			"animation_length": 4.5,
			"bones": {
				"BotBody": {
					"position": {
						"0.0": {
							"vector": [0, 1, 0]
						},
						"2.25": {
							"vector": [0, 0, 0],
							"easing": "easeInOutSine"
						},
						"4.5": {
							"vector": [0, 1, 0],
							"easing": "easeInOutSine"
						}
					},
					"rotation": {
						"vector": [0, 0, 0]
					}
				},
				"FlapFront": {
					"rotation": {
						"0.0": {
							"vector": [0, 0, 0]
						},
						"2.25": {
							"vector": [-7.5, 0, 0],
							"easing": "easeInOutSine"
						},
						"4.5": {
							"vector": [0, 0, 0],
							"easing": "easeInOutSine"
						}
					},
					"position": {
						"vector": [0, 0, 0]
					}
				},
				"FlapLeft": {
					"rotation": {
						"0.0": {
							"vector": [0, 0, 0]
						},
						"2.25": {
							"vector": [0, 0, -7.5],
							"easing": "easeInOutSine"
						},
						"4.5": {
							"vector": [0, 0, 0],
							"easing": "easeInOutSine"
						}
					}
				},
				"FlapBack": {
					"rotation": {
						"0.0": {
							"vector": [0, 0, 0]
						},
						"2.25": {
							"vector": [-7.5, 0, 0],
							"easing": "easeInOutSine"
						},
						"4.5": {
							"vector": [0, 0, 0],
							"easing": "easeInOutSine"
						}
					}
				},
				"FlapRight": {
					"rotation": {
						"0.0": {
							"vector": [0, 0, 0]
						},
						"2.25": {
							"vector": [0, 0, 7.5],
							"easing": "easeInOutSine"
						},
						"4.5": {
							"vector": [0, 0, 0],
							"easing": "easeInOutSine"
						}
					}
				}
			}
		}
	}
}